<define-tag pagetitle>DLA-3017-1 openldap</define-tag>
<define-tag report_date>2022-05-21</define-tag>
<define-tag secrefs>CVE-2022-29155</define-tag>
<define-tag packages>openldap</define-tag>
<define-tag isvulnerable>yes</define-tag>
<define-tag fixed>yes</define-tag>
<define-tag fixed-section>no</define-tag>

#use wml::debian::security

