<define-tag pagetitle>DLA-2897-1 apr</define-tag>
<define-tag report_date>2022-1-24</define-tag>
<define-tag secrefs>CVE-2017-12613</define-tag>
<define-tag packages>apr</define-tag>
<define-tag isvulnerable>yes</define-tag>
<define-tag fixed>yes</define-tag>
<define-tag fixed-section>no</define-tag>

#use wml::debian::security

