<define-tag pagetitle>DLA-3254-1 exuberant-ctags</define-tag>
<define-tag report_date>2022-12-31</define-tag>
<define-tag secrefs>CVE-2022-4515</define-tag>
<define-tag packages>exuberant-ctags</define-tag>
<define-tag isvulnerable>yes</define-tag>
<define-tag fixed>yes</define-tag>
<define-tag fixed-section>no</define-tag>

#use wml::debian::security
