<define-tag pagetitle>DLA-3232-1 virglrenderer</define-tag>
<define-tag report_date>2022-12-07</define-tag>
<define-tag secrefs>CVE-2019-18388 CVE-2019-18389 CVE-2019-18390 CVE-2019-18391 CVE-2020-8002 CVE-2020-8003 CVE-2022-0135 Bug#946942 Bug#949954 Bug#1009073</define-tag>
<define-tag packages>virglrenderer</define-tag>
<define-tag isvulnerable>yes</define-tag>
<define-tag fixed>yes</define-tag>
<define-tag fixed-section>no</define-tag>

#use wml::debian::security

