<define-tag pagetitle>DLA-3248-1 libksba</define-tag>
<define-tag report_date>2022-12-24</define-tag>
<define-tag secrefs>CVE-2022-47629</define-tag>
<define-tag packages>libksba</define-tag>
<define-tag isvulnerable>yes</define-tag>
<define-tag fixed>yes</define-tag>
<define-tag fixed-section>no</define-tag>

#use wml::debian::security

