<define-tag pagetitle>DLA-3239-2 git</define-tag>
<define-tag report_date>2022-12-14</define-tag>
<define-tag packages>git</define-tag>
<define-tag isvulnerable>no</define-tag>
<define-tag fixed>yes</define-tag>
<define-tag fixed-section>no</define-tag>

#use wml::debian::security

