<define-tag pagetitle>DLA-2997-1 ecdsautils</define-tag>
<define-tag report_date>2022-05-07</define-tag>
<define-tag secrefs>CVE-2022-24884</define-tag>
<define-tag packages>ecdsautils</define-tag>
<define-tag isvulnerable>yes</define-tag>
<define-tag fixed>yes</define-tag>
<define-tag fixed-section>no</define-tag>

#use wml::debian::security

