<define-tag pagetitle>DLA-3245-1 linux</define-tag>
<define-tag report_date>2022-12-23</define-tag>
<define-tag secrefs>CVE-2022-2978 CVE-2022-3521 CVE-2022-3524 CVE-2022-3564 CVE-2022-3565 CVE-2022-3594 CVE-2022-3621 CVE-2022-3628 CVE-2022-3640 CVE-2022-3643 CVE-2022-3646 CVE-2022-3649 CVE-2022-4378 CVE-2022-20369 CVE-2022-29901 CVE-2022-40768 CVE-2022-41849 CVE-2022-41850 CVE-2022-42328 CVE-2022-42329 CVE-2022-42895 CVE-2022-42896 CVE-2022-43750</define-tag>
<define-tag packages>linux</define-tag>
<define-tag isvulnerable>yes</define-tag>
<define-tag fixed>yes</define-tag>
<define-tag fixed-section>no</define-tag>

#use wml::debian::security

