<define-tag pagetitle>DLA-3227-1 ruby-rails-html-sanitizer</define-tag>
<define-tag report_date>2022-12-07</define-tag>
<define-tag secrefs>CVE-2022-32209 Bug#1013806</define-tag>
<define-tag packages>ruby-rails-html-sanitizer</define-tag>
<define-tag isvulnerable>yes</define-tag>
<define-tag fixed>yes</define-tag>
<define-tag fixed-section>no</define-tag>

#use wml::debian::security

