<define-tag pagetitle>DLA-3208-1 varnish</define-tag>
<define-tag report_date>2022-11-27</define-tag>
<define-tag secrefs>CVE-2020-11653 CVE-2022-45060 Bug#956307 Bug#1023751</define-tag>
<define-tag packages>varnish</define-tag>
<define-tag isvulnerable>yes</define-tag>
<define-tag fixed>yes</define-tag>
<define-tag fixed-section>no</define-tag>

#use wml::debian::security

