<define-tag pagetitle>DLA-2936-1 libgit2</define-tag>
<define-tag report_date>2022-03-21</define-tag>
<define-tag secrefs>CVE-2018-8098 CVE-2018-8099 CVE-2018-10887 CVE-2018-10888 CVE-2018-15501 CVE-2020-12278 CVE-2020-12279 Bug#892961 Bug#892962 Bug#903508 Bug#903509</define-tag>
<define-tag packages>libgit2</define-tag>
<define-tag isvulnerable>yes</define-tag>
<define-tag fixed>yes</define-tag>
<define-tag fixed-section>no</define-tag>

#use wml::debian::security

