<define-tag pagetitle>DSA-4997-1 tiff</define-tag>
<define-tag report_date>2021-10-31</define-tag>
<define-tag secrefs>CVE-2020-19143</define-tag>
<define-tag packages>tiff</define-tag>
<define-tag isvulnerable>yes</define-tag>
<define-tag fixed>yes</define-tag>
<define-tag fixed-section>no</define-tag>

#use wml::debian::security



</dl>
