<define-tag pagetitle>DSA-4830-1 flatpak</define-tag>
<define-tag report_date>2021-1-14</define-tag>
<define-tag secrefs>CVE-2021-21261</define-tag>
<define-tag packages>flatpak</define-tag>
<define-tag isvulnerable>yes</define-tag>
<define-tag fixed>yes</define-tag>
<define-tag fixed-section>no</define-tag>

#use wml::debian::security



</dl>
