<define-tag pagetitle>DSA-5021-1 mediawiki</define-tag>
<define-tag report_date>2021-12-15</define-tag>
<define-tag secrefs>CVE-2021-44857 CVE-2021-44858 CVE-2021-45038</define-tag>
<define-tag packages>mediawiki</define-tag>
<define-tag isvulnerable>yes</define-tag>
<define-tag fixed>yes</define-tag>
<define-tag fixed-section>no</define-tag>

#use wml::debian::security



</dl>
