<define-tag pagetitle>DSA-4684-1 libreswan</define-tag>
<define-tag report_date>2020-5-13</define-tag>
<define-tag secrefs>CVE-2020-1763 Bug#960458</define-tag>
<define-tag packages>libreswan</define-tag>
<define-tag isvulnerable>yes</define-tag>
<define-tag fixed>yes</define-tag>
<define-tag fixed-section>no</define-tag>

#use wml::debian::security



</dl>
