<define-tag pagetitle>DSA-4794-1 mupdf</define-tag>
<define-tag report_date>2020-11-21</define-tag>
<define-tag secrefs>CVE-2020-26519 Bug#971595</define-tag>
<define-tag packages>mupdf</define-tag>
<define-tag isvulnerable>yes</define-tag>
<define-tag fixed>yes</define-tag>
<define-tag fixed-section>no</define-tag>

#use wml::debian::security



</dl>
