    1	Aaron M. Ucko 	ucko 
    2	Abhijith PA 	abhijith 
    3	Adam Borowski 	kilobyte 
    4	Adam Conrad 	adconrad 
    5	Adam D. Barratt 	adsb 
    6	Adam Majer 	adamm 
    7	Adam Powell 	hazelsct 
    8	Adrian Bunk 	bunk 
    9	Adriano Rafael Gomes 	adrianorg 
   10	Adrian Perez 	blackxored 
   11	Afif Elghraoui 	afif 
   12	Agustin Henze 	tin 
   13	Agustín Martín Domingo 	agmartin 
   14	Aigars Mahinovs 	aigarius 
   15	Akira Ohashi 	bg66 
   16	Akira Yamada 	akira 
   17	Alan Woodland 	awoodland 
   18	Alastair McKinstry 	mckinstry 
   19	Alban Vidal 	zordhak 
   20	Albert Huang 	ash 
   21	Alberto Garcia 	berto 
   22	Alberto Gonzalez Iniesta 	agi 
   23	Albin Tonnerre 	lutin 
   24	Alejandro Garrido Mota 	alejandro 
   25	Alen Zekulic 	azekulic 
   26	Alessandro Ghedini 	ghedo 
   27	Alessio Treglia 	alessio 
   28	Alexander Chernyakhovsky 	achernya 
   29	Alexander GQ Gerasiov 	gq 
   30	Alexander List 	alex 
   31	Alexander Sack 	asac 
   32	Alexander Wirt 	formorer 
   33	Alexander Zangerl 	az 
   34	Alexandre Delanoë 	anoe 
   35	Alexandre Mestiashvili 	mestia 
   36	Alexandre Viau 	aviau 
   37	Alexei Nikolov 	clown 
   38	Alex Muntada 	alexm 
   39	Alex Pennace 	alexp 
   40	Allison Randal 	wendar 
   41	Amaya Rodrigo Sastre 	amaya 
   42	Amos Waterland 	apw 
   43	Ana Beatriz Guerrero López 	ana 
   44	Ana Carolina Comandulli 	caroll 
   45	Ana Custura 	acute 
   46	Anders Hammarquist 	iko 
   47	Andrea Capriotti 	capriott 
   48	Andrea Colangelo 	warp10 
   49	Andrea Mennucci 	mennucc1 
   50	Andreas Barth 	aba 
   51	Andreas Beckmann 	anbe 
   52	Andreas B. Mundt 	andi 
   53	Andreas Boll 	aboll 
   54	Andreas E. Bombe 	aeb 
   55	Andreas Franzen 	anfra 
   56	Andreas Henriksson 	ah 
   57	Andreas Metzler 	ametzler 
   58	Andreas Rönnquist 	gusnan 
   59	Andreas Tille 	tille 
   60	Andree Leidenfrost 	andree 
   61	Andrej Shadura 	andrewsh 
   62	Andre Luis Lopes 	andrelop 
   63	Andrés Roldán 	aroldan 
   64	Andres Salomon 	dilinger 
   65	Andrew Lee 	ajqlee 
   66	Andrew Martin Adrian Cater 	amacater 
   67	Andrew McMillan 	awm 
   68	Andrew Mitchell 	ajmitch 
   69	Andrew Pollock 	apollock 
   70	Andrew Starr-Bochicchio 	asb 
   71	Andrey Rahmatullin 	wrar 
   72	Andrius Merkys 	merkys 
   73	Andy Li 	andyli 
   74	Andy Simpkins 	rattusrattus 
   75	Angel Abad 	angel 
   76	Angel Ramos 	seamus 
   77	Angus Lees 	gus 
   78	Anibal Monsalve Salazar 	anibal 
   79	Anselm Lingnau 	lingnau 
   80	Ansgar 	ansgar 
   81	Anthony Fok 	foka 
   82	Anthony Towns 	ajt 
   83	Antoine Beaupré 	anarcat 
   84	Anton Gladky 	gladk 
   85	Antonin Kral 	krala 
   86	Antonio Radici 	antonio 
   87	Antonio Terceiro 	terceiro 
   88	Anton Zinoviev 	zinoviev 
   89	Anuradha Weeraman 	anuradha 
   90	Apollon Oikonomopoulos 	apoikos 
   91	Ardo van Rangelrooij 	ardo 
   92	Ari Pollak 	ari 
   93	Arnaud Fontaine 	arnau 
   94	Arno Töll 	arno 
   95	Aron Xu 	aron 
   96	Arthur de Jong 	adejong 
   97	Arto Jantunen 	viiru 
   98	Arturo Borrero González 	arturo 
   99	Asheesh Laroia 	paulproteus 
  100	Asias He 	asias 
  101	Atsushi Kamoshida 	kamop 
  102	Attila Szalay 	sasa 
  103	Aurélien Couderc 	coucouf 
  104	Aurelien Jarno 	aurel32 
  105	Axel Beckert 	abe 
  106	Balasankar Chelamattathu 	balasankarc 
  107	Balint Reczey 	rbalint 
  108	Baptiste Beauplat 	lyknode 
  109	Barak A. Pearlmutter 	bap 
  110	Barry deFreese 	bdefreese 
  111	Bart Martens 	bartm 
  112	Bartosz Fenski 	fenio 
  113	Bastian Blank 	waldi 
  114	Bastian Venthur 	venthur 
  115	Bastien Roucariès 	rouca 
  116	Bas Wijnen 	wijnen 
  117	Bas Zoetekouw 	bas 
  118	Bdale Garbee 	bdale 
  119	Ben Armstrong 	synrg 
  120	Ben Burton 	bab 
  121	Benda Xu 	orv 
  122	Ben Finney 	bignose 
  123	Ben Hutchings 	benh 
  124	Benjamin Barenblat 	bbaren 
  125	Benjamin Drung 	bdrung 
  126	Benjamin Hill 	mako 
  127	Benjamin Mesing 	ben 
  128	Ben Pfaff 	pfaffben 
  129	Bernd Schumacher 	bs 
  130	Bernd Zeimetz 	bzed 
  131	Bernelle Verster 	indiebio 
  132	Bernhard R. Link 	brlink 
  133	Bernhard Schmidt 	berni 
  134	Bertrand Marc 	bmarc 
  135	Bill Allombert 	ballombe 
  136	Birger Schacht 	birger 
  137	Boris Pek 	tehnick 
  138	Boyuan Yang 	byang 
  139	Bradley Bosch 	brad 
  140	Branden Robinson 	branden 
  141	Brendan O'Dea 	bod 
  142	Breno Leitao 	leitao 
  143	Brian Gupta 	bgupta 
  144	Brian May 	bam 
  145	Brian Pellin 	bpellin 
  146	Brian Ristuccia 	brianr 
  147	Brian Thomason 	iamfuzz 
  148	Brian White 	bcwhite 
  149	Brice Goglin 	bgoglin 
  150	Bruno Kleinert 	fuddl 
  151	Cameron Dale 	camrdale 
  152	Camm Maguire 	camm 
  153	Carl Chenet 	chaica 
  154	Carlos Laviola 	claviola 
  155	Carlo U. Segre 	segre 
  156	Carl Worth 	cworth 
  157	Carsten Hey 	carsten 
  158	Carsten Leonhardt 	leo 
  159	Carsten Schoenert 	tijuca 
  160	Cédric Boutillier 	boutil 
  161	Cédric Delfosse 	cedric 
  162	Changwoo Ryu 	cwryu 
  163	ChangZhuo Chen 	czchen 
  164	Charles Plessy 	plessy 
  165	Chen Baozi 	baozich 
  166	Chris Boot 	bootc 
  167	Chris Boyle 	cmb 
  168	Chris Halls 	halls 
  169	Chris Lamb 	lamby 
  170	Christian Bayle 	bayle 
  171	Christian Hofstaedtler 	zeha 
  172	Christian Hudon 	chrish 
  173	Christian Kastner 	ckk 
  174	Christian Marillat 	marillat 
  175	Christian T. Steigies 	cts 
  176	Christine Christine Spang 	christine 
  177	Christoph Berg 	myon 
  178	Christoph Biedl 	cbiedl 
  179	Christoph Egger 	christoph 
  180	Christopher Knadle 	krait 
  181	Christopher Lawrence 	lawrencc 
  182	Christopher L. Cheney 	ccheney 
  183	Christopher Stuart Hoskin 	mans0954 
  184	Christopher Taylor 	ctaylor 
  185	Christoph Göhre 	gris 
  186	Christoph Haas 	haas 
  187	Christoph Martin 	chrism 
  188	Christos Trochalakis 	ctrochalakis 
  189	Chrysostomos Nanakos 	cnanakos 
  190	Chuan-kai Lin 	cklin 
  191	Claire Connelly 	cmc 
  192	Clément Hermann 	nodens 
  193	Clint Adams 	clint 
  194	Clint Byrum 	spamaps 
  195	Colin Tuckley 	colint 
  196	Colin Watson 	cjwatson 
  197	Cord Beermann 	cord 
  198	Craig Sanders 	cas 
  199	Craig Small 	csmall 
  200	Cristian Greco 	cristian 
  201	Cyril Bouthors 	cyb 
  202	Cyril Brulebois 	kibi 
  203	Daisuke Higuchi 	dai 
  204	Dale Martin 	dmartin 
  205	Damyan Ivanov 	dmn 
  206	Danai Sae-Han 	danai 
  207	Daniel Baumann 	daniel 
  208	Daniel Echeverry 	epsilon 
  209	Daniele Tricoli 	eriol 
  210	Daniel Glassey 	wdg 
  211	Daniel Kahn Gillmor 	dkg 
  212	Daniel Lange 	dlange 
  213	Daniel Leidert 	dleidert 
  214	Daniel Lenharo de Souza 	lenharo 
  215	Daniel Schepler 	schepler 
  216	Daniel Silverstone 	dsilvers 
  217	Dann Frazier 	dannf 
  218	Dario Minnucci 	midget 
  219	Dariusz Dwornikowski 	darek 
  220	Dave Beckett 	dajobe 
  221	Dave Holland 	dave 
  222	David Bremner 	bremner 
  223	Davide G.M. Salvetti 	salve 
  224	Davide Puricelli 	evo 
  225	David I. Lehn 	dlehn 
  226	David Kalnischkies 	donkult 
  227	David L. Coe 	davidc 
  228	David Nusinow 	dnusinow 
  229	David Paleino 	dapal 
  230	David Prévot 	taffit 
  231	David Steele 	steele 
  232	David Suárez Rodríguez 	deiv 
  233	David Watson 	dwatson 
  234	David Weinehall 	tao 
  235	Deepak Tripathi 	deepak 
  236	Denis Barbier 	barbier 
  237	Denis Briand 	denis 
  238	Dennis L. Clark 	dbugger 
  239	Diane Trout 	diane 
  240	Didier 'OdyX' Raboud 	odyx 
  241	Dima Barsky 	dima 
  242	Dima Kogan 	dkogan 
  243	Dimitri Ledkov 	xnox 
  244	Dirk Eddelbuettel 	edd 
  245	Dmitry Borodaenko 	angdraug 
  246	Dmitry Oboukhov 	unera 
  247	Dmitry Shachnev 	mitya57 
  248	Dmitry Smirnov 	onlyjob 
  249	Domenico Andreoli 	cavok 
  250	Dominic Hargreaves 	dom 
  251	Dominik George 	natureshadow 
  252	Dominique Belhachemi 	domibel 
  253	Dominique Dumont 	dod 
  254	Donald Norwood 	donald 
  255	Don Armstrong 	don 
  256	Drake Diedrich 	dld 
  257	Drew Parsons 	dparsons 
  258	Dylan Aïssi 	daissi 
  259	Ean Schuessler 	ean 
  260	Ed Boraas 	ed 
  261	Edelhard Becker 	edelhard 
  262	Eduard Bloch 	blade 
  263	Eduardo Trápani 	mapache 
  264	Edward Betts 	edward 
  265	Eike Sauer 	eike 
  266	Elana Hashman 	ehashman 
  267	Elena Grandi 	valhalla 
  268	Eloy A. Paris 	peloy 
  269	Emanuele Rocca 	ema 
  270	Emfox Zhou 	emfox 
  271	Emilio Pozuelo Monfort 	pochu 
  272	Emmanuel Bourg 	ebourg 
  273	Emmanuel Bouthenot 	kolter 
  274	Emmanuel Kasper Kasprzyk 	manu 
  275	Enrico Tassi 	gareuselesinge 
  276	Enrico Zini 	enrico 
  277	Eric Delaunay 	delaunay 
  278	Eric Dorland 	eric 
  279	Eric Evans 	eevans 
  280	Erich Schubert 	erich 
  281	Eric Sharkey 	sharkey 
  282	Erik Schanze 	eriks 
  283	Erik Wenzel 	erik 
  284	Erinn Clark 	erinn 
  285	Eugene V. Lyubimkin 	jackyf 
  286	Eugene Zhukov 	eugene 
  287	Eugeniy Meshcheryakov 	eugen 
  288	Evgeni Golov 	evgeni 
  289	Fabian Fagerholm 	fabbe 
  290	Fabian Greffrath 	fabian 
  291	Fabio Tranchitella 	kobold 
  292	Faidon Liambotis 	paravoid 
  293	Falk Hueffner 	falk 
  294	Fathi Boudra 	fabo 
  295	Federico Ceratto 	federico 
  296	Federico Di Gregorio 	fog 
  297	Felipe Augusto van de Wiel 	faw 
  298	Felipe Sateler 	fsateler 
  299	Felix Geyer 	fgeyer 
  300	Felix Lechner 	lechner 
  301	Ferenc Wágner 	wferi 
  302	Filippo Giunchedi 	filippo 
  303	Filippo Rusconi 	lopippo 
  304	Florian Ernst 	florian 
  305	Florian Hinzmann 	fh 
  306	Florian Lohoff 	flo 
  307	Florian Schlichting 	fsfs 
  308	Florian Weimer 	fw 
  309	Francesca Ciceri 	madamezou 
  310	Francesco Lovergine 	frankie 
  311	Francesco Namuri 	franam 
  312	Francisco Manuel García Claramonte 	francisco 
  313	Francois Marier 	francois 
  314	Frank Küster 	frank 
  315	Frank Lichtenheld 	djpig 
  316	Frédéric Bonnard 	frediz 
  317	Frédéric-Emmanuel Picca 	picca 
  318	Frederic Peters 	fpeters 
  319	Fredrik Hallenberg 	hallon 
  320	Free Ekanayaka 	freee 
  321	Gabriel F. T. Gomes 	gabriel 
  322	Gard Spreemann 	gspr 
  323	Gaudenz Steinlin 	gaudenz 
  324	Geert Stappers 	stappers 
  325	Gennaro Oliva 	oliva 
  326	George Danchev 	danchev 
  327	Georges Khaznadar 	georgesk 
  328	Georg Faerber 	georg 
  329	Gerrit Pape 	pape 
  330	Gert Wollny 	gewo 
  331	Giacomo Catenazzi 	cate 
  332	Gianfranco Costamagna 	locutusofborg 
  333	Gilles Filippini 	pini 
  334	Giovani Augusto Ferreira 	giovani 
  335	Giovanni Mascellani 	gio 
  336	Giuseppe Sacco 	eppesuig 
  337	Gleydson Mazioli da Silva 	gleydson 
  338	Goedson Teixeira Paixao 	goedson 
  339	Gonéri Le Bouder 	goneri 
  340	Göran Weinholt 	weinholt 
  341	Gordon Ball 	chronitis 
  342	Graham Inggs 	ginggs 
  343	Gregor Herrmann 	gregoa 
  344	Gregory Colpart 	reg 
  345	Guido Guenther 	agx 
  346	Guido Trotter 	ultrotter 
  347	Guilhem Moulin 	guilhem 
  348	Guillem Jover 	guillem 
  349	Gunnar Hjalmarsson 	gunnarhj 
  350	Gunnar Wolf 	gwolf 
  351	Gustavo Franco 	stratus 
  352	Gustavo Noronha 	kov 
  353	Gustavo Panizzo 	gfa 
  354	Guus Sliepen 	guus 
  355	Hakan Ardo 	hakan 
  356	Hannes von Haugwitz 	hvhaugwitz 
  357	Hanno Wagner 	wagner 
  358	Hans-Christoph Steiner 	eighthave 
  359	Harlan Lieberman-Berg 	hlieberman 
  360	Harshula Jayasuriya 	harshula 
  361	HAYASHI Kentaro 	kenhys 
  362	Hector Garcia 	hector 
  363	Hector Oron 	zumbi 
  364	Heiko Stübner 	mmind 
  365	Helen Faulkner 	helen 
  366	Helge Deller 	deller 
  367	Helmut Grohne 	helmutg 
  368	Henning Glawe 	glaweh 
  369	Henrique de Moraes Holschuh 	hmh 
  370	Hideki Yamane 	henrich 
  371	Hilko Bengen 	bengen 
  372	Holger Levsen 	holger 
  373	Holger Wansing 	holgerw 
  374	Hubert Chan 	uhoreg 
  375	Hugo Lefeuvre 	hle 
  376	Hwei Sheng Teoh 	hsteoh 
  377	Iain Lane 	laney 
  378	Ian Beckwith 	ianb 
  379	Ian Jackson 	iwj 
  380	Ian James Campbell 	ijc 
  381	Ian Wienand 	ianw 
  382	Ilias Tsitsimpis 	iliastsi 
  383	intrigeri 	intrigeri 
  384	IOhannes m zmölnig 	umlaeute 
  385	Iustin Pop 	iustin 
  386	Ivan Kohler 	ivan 
  387	Ivo De Decker 	ivodd 
  388	Jaakko Niemi 	liiwi 
  389	Jaime Robles 	jaime 
  390	Jakob Haufe 	sur5r 
  391	Jakub Wilk 	jwilk 
  392	Jaldhar H. Vyas 	jaldhar 
  393	James Bromberger 	jeb 
  394	James Cowgill 	jcowgill 
  395	James Downing Page 	jamespage 
  396	James McCoy 	jamessan 
  397	James Troup 	troup 
  398	James Valleroy 	jvalleroy 
  399	Jamie Wilkinson 	jaq 
  400	Jan Dittberner 	jandd 
  401	Jan Hauke Rahm 	jhr 
  402	Jan Lübbe 	jluebbe 
  403	Jan Niehusmann 	jan 
  404	Jan Wagner 	waja 
  405	Jason Thomas 	jason 
  406	Javier Fernandez-Sanguino Peña 	jfs 
  407	Javier Merino Cacho 	vicho 
  408	Jay Berkenbilt 	qjb 
  409	Jay Bonci 	jaybonci 
  410	Jean Baptiste Favre 	jbfavre 
  411	Jean-Michel Kelbert 	kelbert 
  412	Jean-Michel Vourgère 	nirgal 
  413	Jean-Philippe MENGUAL 	jpmengual 
  414	Jeff Breidenbach 	jab 
  415	Jeffrey Ratcliffe 	jjr 
  416	Jeff Teunissen 	deek 
  417	Jelmer Vernooij 	jelmer 
  418	Jérémie Corbier 	jcorbier 
  419	Jeremy Bicha 	jbicha 
  420	Jérémy Bobbio 	lunar 
  421	Jeremy Bouse 	jbouse 
  422	Jeremy Lainé 	sharky 
  423	Jérémy Lal 	kapouer 
  424	Jeroen Ploemen 	jcfp 
  425	Jeroen van Wolffelaar 	jeroen 
  426	Jerome Charaoui 	lavamind 
  427	Jerome Georges Benoit 	calculus 
  428	Jessica Clarke 	jrtc27 
  429	Jim Meyering 	meyering 
  430	Jimmy Kaplowitz 	jimmy 
  431	Joachim Breitner 	nomeata 
  432	Joachim Reichel 	reichel 
  433	Joao Eriberto Mota Filho 	eriberto 
  434	Jochen Sprickerhof 	jspricke 
  435	Joel Rosdahl 	joel 
  436	Joerg Jaspert 	joerg 
  437	Johannes Schauer 	josch 
  438	Johann Felix Soden 	johfel 
  439	John Francesco Ferlito 	johnf 
  440	John Goerzen 	jgoerzen 
  441	John H. IV Robinson 	jaqque 
  442	John Leuner 	jewel 
  443	John Lightsey 	lightsey 
  444	John Lines 	jlines 
  445	John Paul Adrian Glaubitz 	glaubitz 
  446	John Sullivan 	johns 
  447	John V. Belmonte 	jbelmonte 
  448	John Wright 	jsw 
  449	Jonas Genannt 	genannt 
  450	Jonas Meurer 	mejo 
  451	Jonas Smedegaard 	js 
  452	Jonathan Bustillos 	jathan 
  453	Jonathan Cristopher Carter 	jcc 
  454	Jonathan Dowland 	jmtd 
  455	Jonathan Marler 	jmarler 
  456	Jonathan McDowell 	noodles 
  457	Jonathan Nieder 	jrnieder 
  458	Jonathan Oxer 	jon 
  459	Jonathan Wiltshire 	jmw 
  460	Jon Bernard 	jbernard 
  461	Jonny Lamb 	jonny 
  462	Joost van Baal 	joostvb 
  463	Jordan Justen 	jljusten 
  464	Jordi Mallach 	jordi 
  465	Jörgen Hägg 	jh 
  466	Jorge Salamero Sanz 	bencer 
  467	José L. Redrejo Rodríguez 	jredrejo 
  468	Jose Luis Rivas Contreras 	ghostbar 
  469	Jose M. Calhariz 	calhariz 
  470	Jose Parrella 	bureado 
  471	Joseph Nahmias 	jello 
  472	Jo Shields 	directhex 
  473	Joshua Kwan 	joshk 
  474	Josip Rodin 	joy 
  475	Josselin Mouette 	joss 
  476	Josué Abarca 	jmaslibre 
  477	Josué Ortega 	josue 
  478	Juan Cespedes 	cespedes 
  479	Juan Gregorio Hernando Rivero 	ghe 
  480	Judit Foglszinger 	urbec 
  481	Julian Andres Klode 	jak 
  482	Juliane Friederike Holzt 	jule 
  483	Julian Gilbey 	jdg 
  484	Julián Moreno Patiño 	julian 
  485	Julien Cristau 	jcristau 
  486	Julien Patriarca 	leatherface 
  487	Julien Puydt 	jpuydt 
  488	Junichi Uekawa 	dancer 
  489	Kai-Chung Yan 	seamlik 
  490	Kai Wasserbäch 	curan 
  491	Kamal Mostafa 	kamal 
  492	Kanru Chen 	koster 
  493	Karen M Sandler 	karen 
  494	Kåre Thor Olsen 	kaare 
  495	Kari Pahula 	kaol 
  496	Karsten Merker 	merker 
  497	Kartik Mistry 	kartik 
  498	Kees Cook 	kees 
  499	Keita Maehara 	maehara 
  500	Keith Packard 	keithp 
  501	Keng-Yu Lin 	kengyu 
  502	Kenneth J. Pronovici 	pronovic 
  503	Kevin Coyner 	kcoyner 
  504	Kevin M. Rosenberg 	kmr 
  505	Khalid Aziz 	khalid 
  506	Kilian Krause 	kilian 
  507	Klee Dienes 	klee 
  508	Konstantinos Margaritis 	markos 
  509	Krzysztof Krzyzaniak 	eloy 
  510	Kumar Appaiah 	akumar 
  511	Kunal Mehta 	legoktm 
  512	Kurt Kremitzki 	kkremitzki 
  513	Kurt Roeckx 	kroeckx 
  514	Kyle Robbertze 	paddatrapper 
  515	Lamont Jones 	lamont 
  516	Lars Bahner 	bahner 
  517	László Böszörményi 	gcs 
  518	Laszlo Kajan 	lkajan 
  519	Laura Arjona Reina 	larjona 
  520	Laurence Lane 	ljlane 
  521	Laurent Bigonville 	bigon 
  522	Lenart Janos 	ocsi 
  523	Leo Costela 	costela 
  524	Lev Lamberov 	dogsleg 
  525	Lionel Elie Mamane 	lmamane 
  526	Lior Kaplan 	kaplan 
  527	Lisa Baron 	jeffity 
  528	Lisandro Damián Nicanor Pérez Meyer 	lisandro 
  529	Loic Dachary 	loic 
  530	Loïc Minier 	lool 
  531	Loong Jin Chow 	hyperair 
  532	Louis-Philippe Véronneau 	pollo 
  533	Luca Boccassi 	bluca 
  534	Luca Bruno 	lucab 
  535	Luca Falavigna 	dktrkranz 
  536	Luca Filipozzi 	lfilipoz 
  537	Lucas Kanashiro 	kanashiro 
  538	Lucas Nussbaum 	lucas 
  539	Luciano Bello 	luciano 
  540	Ludovic Brenta 	lbrenta 
  541	Ludovic Drolez 	ldrolez 
  542	Ludovico Cavedon 	cavedon 
  543	Ludovico Gardenghi 	garden 
  544	Ludovic Rousseau 	rousseau 
  545	Luigi Gangitano 	luigi 
  546	Lukasz Jachowicz 	honey 
  547	Luke Faraone 	lfaraone 
  548	Maarten Bernardus Lankhorst 	maarten 
  549	Magnus Holmgren 	holmgren 
  550	Maitland Bottoms 	bottoms 
  551	Makoto OHURA 	ohura 
  552	Manoj Srivastava 	srivasta 
  553	Manuel A. Fernandez Montecelo 	mafm 
  554	Manuel Prinz 	manuel 
  555	Marc Dequènes 	duck 
  556	Marcela Tiznado 	mlt 
  557	Marcelo Jorge Vieira 	metal 
  558	Marc Haber 	zugschlus 
  559	Marcin Kulisz 	kula 
  560	Marcin Owsiany 	porridge 
  561	Marcio de Souza Oliveira 	marciosouza 
  562	Marco d'Itri 	md 
  563	Marco Nenciarini 	mnencia 
  564	Marco Presi 	zufus 
  565	Marcos Fouces 	marcos 
  566	Marc Singer 	elf 
  567	Margarita Manterola 	marga 
  568	Mario Joussen 	joussen 
  569	Mark Brown 	broonie 
  570	Mark Eichin 	eichin 
  571	Mark Hindley 	leepen 
  572	Mark Hymers 	mhy 
  573	Mark Purcell 	msp 
  574	Mark Shuttleworth 	marks 
  575	Markus Frosch 	lazyfrosch 
  576	Markus Koschany 	apo 
  577	Markus Wanner 	markus 
  578	Martijn van Brummelen 	mvb 
  579	Martina Ferrari 	tina 
  580	Martin A. Godisch 	godisch 
  581	Martin Albert 	ma 
  582	Martin Bagge 	brother 
  583	Martin Buck 	mbuck 
  584	Martin F. Krafft 	madduck 
  585	Martin Loschwitz 	madkiss 
  586	Martin Meredith 	mez 
  587	Martin Michlmayr 	tbm 
  588	Martin Pitt 	mpitt 
  589	Martin Quinson 	mquinson 
  590	Martin Wuertele 	maxx 
  591	Martin Zobel-Helas 	zobel 
  592	Masahito Omote 	omote 
  593	Masanori Goto 	gotom 
  594	Masayuki Hatta 	mhatta 
  595	Mathias Behrle 	mbehrle 
  596	Mathieu Malaterre 	malat 
  597	Mathieu Parent 	sathieu 
  598	Matteo F. Vescovi 	mfv 
  599	Matthew Brown 	mattb 
  600	Matthew Danish 	mrd 
  601	Matthew Garrett 	mjg59 
  602	Matthew Grant 	grantma 
  603	Matthew Palmer 	mpalmer 
  604	Matthew Vernon 	matthew 
  605	Matthias Klose 	doko 
  606	Matthias Klumpp 	mak 
  607	Matthias Urlichs 	smurf 
  608	Matthieu Caneill 	matthieucan 
  609	Mattia Dongili 	malattia 
  610	Mattia Rizzolo 	mattia 
  611	Mattias Ellert 	ellert 
  612	Mattias Nordstrom 	mnordstr 
  613	Mattias Wadenstein 	maswan 
  614	Matt Kraai 	kraai 
  615	Matt Taggart 	taggart 
  616	Matt Zimmerman 	mdz 
  617	Maximilian Attems 	maks 
  618	Maximiliano Curia 	maxy 
  619	Max Vozeler 	xam 
  620	Mazen Neifer 	mazen 
  621	Mechtilde Stehmann 	mechtilde 
  622	Mehdi Dogguy 	mehdi 
  623	Miah Gregory 	mace 
  624	Micah Anderson 	micah 
  625	Michael Ablassmeier 	abi 
  626	Michael Banck 	mbanck 
  627	Michael Beattie 	mjb 
  628	Michael Biebl 	biebl 
  629	Michael Bramer 	grisu 
  630	Michael C. Schultheiss 	schultmc 
  631	Michael D. Mattice 	mattice 
  632	Michael Fladischer 	fladi 
  633	Michael Gilbert 	mgilbert 
  634	Michael Hanke 	mih 
  635	Michael Hudson-Doyle 	mwhudson 
  636	Michael Janssen 	jamuraa 
  637	Michael Jeanson 	mjeanson 
  638	Michael Lustfield 	mtecknology 
  639	Michael Meskes 	meskes 
  640	Michael Prokop 	mika 
  641	Michael Robin Crusoe 	crusoe 
  642	Michael Schiansky 	ms 
  643	Michael Schlueter 	schlue 
  644	Michael Schmitz 	schmitz 
  645	Michael Schutte 	michi 
  646	Michael Stapelberg 	stapelberg 
  647	Michael Stone 	mstone 
  648	Michael Tautschnig 	mt 
  649	Michael Tokarev 	mjt 
  650	Michael Vogt 	mvo 
  651	Michal Arbet 	kevko 
  652	Michal Cihar 	nijel 
  653	Micha Lenk 	micha 
  654	Miguel Landaeta 	nomadium 
  655	Mikael Djurfeldt 	mdj 
  656	Mike Gabriel 	sunweaver 
  657	Mike Hommey 	glandium 
  658	Mike Markley 	madhack 
  659	Mike Miller 	mtmiller 
  660	Mikhail Gusarov 	dottedmag 
  661	Milan Kupcevic 	milan 
  662	Milan Zamazal 	pdm 
  663	Ming-ting Yao Wei 	mwei 
  664	Miquel van Smoorenburg 	miquels 
  665	Mirco Bauer 	meebey 
  666	Miriam Ruiz 	miriam 
  667	M J Ray 	mjr 
  668	Modestas Vainius 	modax 
  669	Mohammed Adnène Trojette 	adn 
  670	Mohammed Sameer 	msameer 
  671	Molly de Blanc 	mollydb 
  672	Mònica Ramírez Arceda 	monica 
  673	Moray Allan 	moray 
  674	Moritz Muehlenhoff 	jmm 
  675	Morten Werner Forsbring 	werner 
  676	Mo Zhou 	lumin 
  677	Muammar El Khatib 	muammar 
  678	Murat Demirten 	murat 
  679	Mutsumi Ishikawa 	ishikawa 
  680	Nathaniel Harrison Handler 	nhandler 
  681	Nathan Scott 	nathans 
  682	Nattie Mayer-Hutchings 	nattie 
  683	Neil A. Schemenauer 	nas 
  684	Neil L. Roeth 	neil 
  685	Neil McGovern 	neilm 
  686	Neil Williams 	codehelp 
  687	Neutron Soutmun 	neutrons 
  688	Nicholas Breen 	nbreen 
  689	Nicholas D Steeves 	sten 
  690	Nick Morrott 	nickm 
  691	Nick Phillips 	nwp 
  692	Nicolas Bertolissio 	bertol 
  693	Nicolas Boulenguez 	nicolas 
  694	Nicolas Boullis 	nboullis 
  695	Nicolas Dandrimont 	olasd 
  696	Nicolas Mora 	babelouest 
  697	nicoo 	nicoo 
  698	Niels Thykier 	nthykier 
  699	NIIBE Yutaka 	gniibe 
  700	Niko Tyni 	ntyni 
  701	Nilesh Patra 	nilesh 
  702	Nils Boeffel 	lohner 
  703	Noah Meyerhans 	noahm 
  704	Nobuhiro Iwamatsu 	iwamatsu 
  705	Noèl Köthe 	noel 
  706	Norbert Preining 	preining 
  707	Norbert Tretkowski 	nobse 
  708	Norbert Veber 	nveber 
  709	Obey Arthur Liu 	arthurliu 
  710	Ognyan Kulev 	ogi 
  711	Ola Lundqvist 	opal 
  712	Olek Wojnar 	olek 
  713	Ole Streicher 	olebole 
  714	Olivier Sallou 	osallou 
  715	Olly Betts 	olly 
  716	Ondřej Čertík 	certik 
  717	Ondřej Kobližek 	kobla 
  718	Ondřej Nový 	onovy 
  719	Ondrej Sury 	ondrej 
  720	Osamu Aoki 	osamu 
  721	Otto Kekäläinen 	otto 
  722	Ove Kåven 	ovek 
  723	Øystein Gisnås 	shaka 
  724	Pablo Lorenzzoni 	spectra 
  725	Paride Legovini 	paride 
  726	Pascal Hakim 	pasc 
  727	Patrick Matthäi 	pmatthaei 
  728	Patrick Ouellette 	pouelle 
  729	Patryk Cisek 	patryk 
  730	Patty Langasek 	harmoney 
  731	Paul Brossier 	piem 
  732	Paul Cannon 	pik 
  733	Paul Cupis 	cupis 
  734	Paul D. Bame 	bame 
  735	Paul Martin 	pm 
  736	Paul Mathijs Gevers 	elbrus 
  737	Paulo Henrique de Lima Santana 	phls 
  738	Paul Richards Tagliamonte 	paultag 
  739	Paul Slootman 	paul 
  740	Paul van Tilburg 	paulvt 
  741	Paul Waite 	paulwaite 
  742	Paul Wise 	pabs 
  743	Per Andersson 	avtobiff 
  744	Peter De Schrijver 	p2 
  745	Peter Eisentraut 	petere 
  746	Peter Kelemen 	fuji 
  747	Peter Michael Green 	plugwash 
  748	Peter Palfrader 	weasel 
  749	Peter Pentchev 	roam 
  750	Peter S. Galbraith 	psg 
  751	Peter Van Eynde 	pvaneynd 
  752	Petr Cech 	cech 
  753	Petter Reinholdtsen 	pere 
  754	Phil Brooke 	pjb 
  755	Philip Hands 	philh 
  756	Philippe Thierry 	philou 
  757	Philipp Huebner 	debalance 
  758	Philipp Hug 	hug 
  759	Philipp Kern 	pkern 
  760	Philipp Matthias Hahn 	pmhahn 
  761	Pierre Chifflier 	pollux 
  762	Pierre-Elliott Bécue 	peb 
  763	Pierre Gruet 	pgt 
  764	Pino Toscano 	pino 
  765	Piotr Ożarowski 	piotr 
  766	Piotr Roszatycki 	dexter 
  767	Prach Pongpanich 	prach 
  768	Praveen Arimbrathodiyil 	praveen 
  769	Punit Agrawal 	punit 
  770	Radovan Garabik 	garabik 
  771	Rafael Laboissiere 	rafael 
  772	Ralf Treinen 	treinen 
  773	Raphael Bossek 	bossekr 
  774	Raphael Geissert 	geissert 
  775	Raphaël Hertzog 	hertzog 
  776	Recai Oktas 	roktas 
  777	Reinhard Tartler 	siretart 
  778	Remi Vanicat 	vanicat 
  779	Rene Engelhard 	rene 
  780	Rene Mayorga 	rmayorga 
  781	Rene Mayrhofer 	rmayr 
  782	Rene Weber 	rweber 
  783	Rhonda D'Vine 	rhonda 
  784	Ricardo Mones Lastra 	mones 
  785	Riccardo Setti 	giskard 
  786	Richard A. Nelson 	cowboy 
  787	Richard Hecker 	hecker 
  788	Richard Kreckel 	kreckel 
  789	Richard Laager 	rlaager 
  790	Richard Michael Hartmann 	richih 
  791	Riku Voipio 	riku 
  792	RISKO Gergely 	risko 
  793	Ritesh Raj Sarraf 	rrs 
  794	Rob Bradford 	robster 
  795	Rob Browning 	rlb 
  796	Robert Alan Larson 	blarson 
  797	Robert Edmonds 	edmonds 
  798	Robert Haist 	rha 
  799	Robert Luberda 	robert 
  800	Robert Millan 	rmh 
  801	Roberto C. Sanchez 	roberto 
  802	Roberto Lumbreras 	rover 
  803	Robert Woodcock 	rcw 
  804	Robie Basak 	rbasak 
  805	Roger Shimizu 	rosh 
  806	Roland Dreier 	rbd 
  807	Roland Fehrenbacher 	rfehren 
  808	Roland Marcus Rutschmann 	rudi 
  809	Roland Mas 	lolando 
  810	Roland Rosenfeld 	roland 
  811	Romain Francoise 	rfrancoise 
  812	Ron Lee 	ron 
  813	Ross Burton 	ross 
  814	Ross Gammon 	rossgammon 
  815	Ross Peachey 	rcp 
  816	Ross Vandegrift 	rvandegrift 
  817	Ruben Undheim 	rubund 
  818	Russ Allbery 	rra 
  819	Russell Coker 	etbe 
  820	Russell Stuart 	ras 
  821	Ryan Kavanagh 	rak 
  822	Ryan M. Golbeck 	rmgolbeck 
  823	Salvador Abreu 	spa 
  824	Salvatore Bonaccorso 	carnil 
  825	Sam Clegg 	samo 
  826	Sam Hartman 	hartmans 
  827	Sam Johnston 	samj 
  828	Samuel Henrique 	samueloph 
  829	Samuel Hocevar 	sho 
  830	Samuel Mimram 	smimram 
  831	Samuel Thibault 	sthibault 
  832	Sandro Knauß 	hefee 
  833	Sandro Tosi 	morph 
  834	Santiago Garcia Mantinan 	manty 
  835	Santiago Ruano Rincón 	santiago 
  836	Santiago Vila 	sanvila 
  837	Sascha Steinbiss 	satta 
  838	Scarlett Moore 	sgmoore 
  839	Scott James Remnant 	keybuk 
  840	Scott Kitterman 	kitterman 
  841	Scott Sheridan Howard 	showard 
  842	Scott Talbert 	swt2c 
  843	Sean Whitton 	spwhitton 
  844	Sebastiaan Couwenberg 	sebastic 
  845	Sebastian Andrzej Siewior 	bigeasy 
  846	Sebastian Dröge 	slomo 
  847	Sebastian Harl 	tokkee 
  848	Sebastian Ramacher 	sramacher 
  849	Sebastian Reichel 	sre 
  850	Sebastian Rittau 	srittau 
  851	Sebastien Bacher 	seb128 
  852	Sebastien Badia 	sbadia 
  853	Sebastien Delafond 	seb 
  854	Sébastien Villemot 	sebastien 
  855	Serafeim Zanikolas 	sez 
  856	Sergei Golovan 	sgolovan 
  857	Sergio Durigan Junior 	sergiodj 
  858	Sergio Talens-Oliag 	sto 
  859	Shachar Shemesh 	shachar 
  860	Shane Wegner 	shane 
  861	Shaun Jackman 	sjackman 
  862	Shengjing Zhu 	zhsj 
  863	Shigeo Noshiro 	noshiro 
  864	Shih-Yuan Lee 	fourdollars 
  865	Shugo Maeda 	shugo 
  866	Siegfried-Angel Gevatter Pujals 	sgevatter 
  867	Simon Horman 	horms 
  868	Simon Josefsson 	jas 
  869	Simon Kelley 	srk 
  870	Simon McVittie 	smcv 
  871	Simon Quigley 	tsimonq2 
  872	Simon Richter 	sjr 
  873	Sjoerd Simons 	sjoerd 
  874	Sruthi Chandran 	srud 
  875	Stefan Alfredsson 	alfs 
  876	Stefan Fritsch 	sf 
  877	Stefan Hornburg 	racke 
  878	Stefano Rivera 	stefanor 
  879	Stefano Zacchiroli 	zack 
  880	Stefan Pfetzing 	dreamind 
  881	Steffen Möller 	moeller 
  882	Steinar H. Gunderson 	sesse 
  883	Stein Magnus Jodal 	jodal 
  884	Stéphane Blondon 	sblondon 
  885	Stéphane Glondu 	glondu 
  886	Stephan Lachnit 	stephanlachnit 
  887	Stephan Suerken 	absurd 
  888	Stephen Frost 	sfrost 
  889	Stephen Gelman 	ssgelm 
  890	Stephen Gran 	sgran 
  891	Stephen Kitt 	skitt 
  892	Stephen Leake 	stephe 
  893	Stephen R. Marenka 	smarenka 
  894	Steve Kemp 	skx 
  895	Steve Kostecke 	steve 
  896	Steve Kowalik 	stevenk 
  897	Steve Langasek 	vorlon 
  898	Steve McIntyre 	93sam 
  899	Steven Chamberlain 	stevenc 
  900	Steven Michael Robbins 	smr 
  901	Stig Sandbeck Mathisen 	ssm 
  902	Stuart Prescott 	stuart 
  903	Stuart Teasdale 	sdt 
  904	Sudip Mukherjee 	sudip 
  905	Sune Vuorela 	sune 
  906	Sven Bartscher 	kritzefitz 
  907	Sven Eckelmann 	ecsv 
  908	Sven Hoexter 	hoexter 
  909	Sven Mueller 	sven 
  910	Sylvain Beucler 	beuc 
  911	Sylvestre Ledru 	sylvestre 
  912	SZ Lin 	szlin 
  913	Takaki Taniguchi 	takaki 
  914	Takatsugu Nokubi 	knok 
  915	Takeshi YAEGASHI 	yaegashi 
  916	Takuo KITAME 	kitame 
  917	Taku Yasui 	tach 
  918	Tamas Szerb 	toma 
  919	Tanguy Ortolo 	tanguy 
  920	Taowa 	taowa 
  921	Tássia Camões Araújo 	tassia 
  922	Tatsuya Kinoshita 	tats 
  923	Teemu Hukkanen 	tjhukkan 
  924	Teruyuki Morimura 	morimura 
  925	Teus Benschop 	teusbenschop 
  926	Thaddeus H. Black 	thb 
  927	Thadeu Cascardo 	cascardo 
  928	Theodore Y. Ts'o 	tytso 
  929	Theppitak Karoonboonyanan 	thep 
  930	Thiago Andrade Marques 	andrade 
  931	Thibaut Jean-Claude Paumard 	thibaut 
  932	Thierry Randrianiriana 	thierry 
  933	Thijs Kinkhorst 	thijs 
  934	Thomas Bushnell 	tb 
  935	Thomas Girard 	tgg 
  936	Thomas Goirand 	zigo 
  937	Thomas Koch 	thk 
  938	Thomas Lange 	lange 
  939	Thomas Preud'homme 	robotux 
  940	Thomas Schmidt 	tschmidt 
  941	Thomas Vincent 	tvincent 
  942	Thomas Wana 	greuff 
  943	Thomas Weber 	tweber 
  944	Thom May 	thom 
  945	Thorsten Alteholz 	alteholz 
  946	Thorsten Glaser 	tg 
  947	Thorvald Natvig 	thorvald 
  948	Tiago Bortoletto Vaz 	tiago 
  949	Tianon Gravi 	tianon 
  950	Tim Cutts 	tjrc1 
  951	Timo Aaltonen 	tjaalton 
  952	Timo Juhani Lindfors 	lindi 
  953	Timo Jyrinki 	timo 
  954	Timothy Martin Potter 	tpot 
  955	Timo Weingärtner 	tiwe 
  956	Tim Retout 	diocles 
  957	Tim Riker 	timr 
  958	Tobias Frost 	tobi 
  959	Tobias Grimm 	etobi 
  960	Tobias Hansen 	thansen 
  961	Tobias Quathamer 	toddy 
  962	Tollef Fog Heen 	tfheen 
  963	Tomas Fasth 	tomfa 
  964	Tomas Pospisek 	tpo 
  965	Tomasz Buchert 	tomasz 
  966	Tomasz Rybak 	serpent 
  967	Tommi Vainikainen 	tvainika 
  968	Toni Mueller 	toni 
  969	Tony Mancill 	tmancill 
  970	Torsten Landschoff 	torsten 
  971	Torsten Marek 	shlomme 
  972	Torsten Werner 	twerner 
  973	Tristan Seligmann 	mithrandi 
  974	Troy Heber 	troyh 
  975	Tzafrir Cohen 	tzafrir 
  976	Ulises Vitulli 	dererk 
  977	Ulrich Dangel 	uli 
  978	Ulrike Uhlig 	ulrike 
  979	Unit 193 	unit193 
  980	Utkarsh Gupta 	utkarsh 
  981	Uwe Hermann 	uwe 
  982	Uwe Kleine-König 	ukleinek 
  983	Uwe Steinmann 	steinm 
  984	Vagrant Cascadian 	vagrant 
  985	Valentin Vidic 	vvidic 
  986	Varun Hiremath 	varun 
  987	Vasudev Sathish Kamath 	vasudev 
  988	Victor Seva 	vseva 
  989	Vincent Bernat 	bernat 
  990	Vincent Cheng 	vcheng 
  991	Vincent Danjean 	vdanjean 
  992	Vincent Legout 	vlegout 
  993	Vincent Prat 	vivi 
  994	Vincent Sanders 	vince 
  995	Wartan Hachaturow 	wart 
  996	Werner Heuser 	wehe 
  997	Wesley W. Terpstra 	terpstra 
  998	William Blough 	bblough 
  999	Willi Mann 	willi 
 1000	Will Newton 	will 
 1001	Wilmer van der Gaast 	lintux 
 1002	Wolfgang Borgert 	debacle 
 1003	Wookey 	wookey 
 1004	Wouter Verhelst 	wouter 
 1005	Xavier Lüthi 	xluthi 
 1006	Xavier Roche 	xavier 
 1007	Ximin Luo 	infinity0 
 1008	Yadd 	yadd 
 1009	Yann Dirson 	dirson 
 1010	Yaroslav Halchenko 	yoh 
 1011	Yasuhiro Araki 	ar 
 1012	Ying-Chun Liu 	paulliu 
 1013	Yukiharu Yabuki 	yyabuki 
 1014	YunQiang Su 	syq 
 1015	Yuuma Oohara 	oohara 
 1016	Yves-Alexis Perez 	corsac 
 1017	Zed Pobre 	zed 
 1018	Zlatan Todoric 	zlatan 
