<define-tag pagetitle>DSA-3156-1 liblivemedia</define-tag>
<define-tag report_date>2015-2-07</define-tag>
<define-tag secrefs>CVE-2013-6933</define-tag>
<define-tag packages>liblivemedia</define-tag>
<define-tag isvulnerable>yes</define-tag>
<define-tag fixed>yes</define-tag>
<define-tag fixed-section>no</define-tag>

#use wml::debian::security



</dl>
