<define-tag pagetitle>DLA-2853-1 ruby2.3</define-tag>
<define-tag report_date>2021-12-28</define-tag>
<define-tag secrefs>CVE-2021-41817 CVE-2021-41819</define-tag>
<define-tag packages>ruby2.3</define-tag>
<define-tag isvulnerable>yes</define-tag>
<define-tag fixed>yes</define-tag>
<define-tag fixed-section>no</define-tag>

#use wml::debian::security

