<define-tag pagetitle>DLA-2711-1 thunderbird</define-tag>
<define-tag report_date>2021-07-19</define-tag>
<define-tag secrefs>CVE-2021-29969 CVE-2021-29970 CVE-2021-29976 CVE-2021-30547</define-tag>
<define-tag packages>thunderbird</define-tag>
<define-tag isvulnerable>yes</define-tag>
<define-tag fixed>yes</define-tag>
<define-tag fixed-section>no</define-tag>

#use wml::debian::security

