<define-tag pagetitle>DLA-2728-1 vlc</define-tag>
<define-tag report_date>2021-08-03</define-tag>
<define-tag secrefs>CVE-2021-25801 CVE-2021-25802 CVE-2021-25803 CVE-2021-25804</define-tag>
<define-tag packages>vlc</define-tag>
<define-tag isvulnerable>yes</define-tag>
<define-tag fixed>yes</define-tag>
<define-tag fixed-section>no</define-tag>

#use wml::debian::security
