<define-tag pagetitle>DSA-5391-1 libxml2</define-tag>
<define-tag report_date>2023-4-20</define-tag>
<define-tag secrefs>CVE-2023-28484 CVE-2023-29469 Bug#1034436 Bug#1034437</define-tag>
<define-tag packages>libxml2</define-tag>
<define-tag isvulnerable>yes</define-tag>
<define-tag fixed>yes</define-tag>
<define-tag fixed-section>no</define-tag>

#use wml::debian::security



</dl>
