<define-tag pagetitle>DSA-5424-1 php7.4</define-tag>
<define-tag report_date>2023-6-13</define-tag>
<define-tag secrefs>not yet available</define-tag>
<define-tag packages>php7.4</define-tag>
<define-tag isvulnerable>yes</define-tag>
<define-tag fixed>yes</define-tag>
<define-tag fixed-section>no</define-tag>

#use wml::debian::security



</dl>
