<define-tag pagetitle>DSA-5408-1 libwebp</define-tag>
<define-tag report_date>2023-5-21</define-tag>
<define-tag secrefs>CVE-2023-1999 Bug#1035371</define-tag>
<define-tag packages>libwebp</define-tag>
<define-tag isvulnerable>yes</define-tag>
<define-tag fixed>yes</define-tag>
<define-tag fixed-section>no</define-tag>

#use wml::debian::security



</dl>
