<define-tag pagetitle>DSA-5368-1 libreswan</define-tag>
<define-tag report_date>2023-3-03</define-tag>
<define-tag secrefs>CVE-2023-23009 Bug#1031821</define-tag>
<define-tag packages>libreswan</define-tag>
<define-tag isvulnerable>yes</define-tag>
<define-tag fixed>yes</define-tag>
<define-tag fixed-section>no</define-tag>

#use wml::debian::security



</dl>
