<define-tag pagetitle>DSA-5352-1 wpewebkit</define-tag>
<define-tag report_date>2023-2-17</define-tag>
<define-tag secrefs>CVE-2023-23529</define-tag>
<define-tag packages>wpewebkit</define-tag>
<define-tag isvulnerable>yes</define-tag>
<define-tag fixed>yes</define-tag>
<define-tag fixed-section>no</define-tag>

#use wml::debian::security



</dl>
