<define-tag pagetitle>DSA-5434-1 minidlna</define-tag>
<define-tag report_date>2023-6-21</define-tag>
<define-tag secrefs>CVE-2023-33476 Bug#1037052</define-tag>
<define-tag packages>minidlna</define-tag>
<define-tag isvulnerable>yes</define-tag>
<define-tag fixed>yes</define-tag>
<define-tag fixed-section>no</define-tag>

#use wml::debian::security



</dl>
