<define-tag pagetitle>DLA-1151-2 wordpress</define-tag>
<define-tag report_date>2017-11-12</define-tag>
<define-tag secrefs>Bug#881088</define-tag>
<define-tag packages>wordpress</define-tag>
<define-tag isvulnerable>yes</define-tag>
<define-tag fixed>yes</define-tag>
<define-tag fixed-section>no</define-tag>

#use wml::debian::security

