<define-tag pagetitle>DLA-794-1 groovy</define-tag>
<define-tag report_date>2017-1-22</define-tag>
<define-tag secrefs>CVE-2016-6814 Bug#851408</define-tag>
<define-tag packages>groovy</define-tag>
<define-tag isvulnerable>yes</define-tag>
<define-tag fixed>yes</define-tag>
<define-tag fixed-section>no</define-tag>

#use wml::debian::security

