<define-tag pagetitle>DLA-879-1 firebird2.5</define-tag>
<define-tag report_date>2017-3-29</define-tag>
<define-tag secrefs>CVE-2017-6369 Bug#858641</define-tag>
<define-tag packages>firebird2.5</define-tag>
<define-tag isvulnerable>yes</define-tag>
<define-tag fixed>yes</define-tag>
<define-tag fixed-section>no</define-tag>

#use wml::debian::security

