<define-tag pagetitle>DLA-1223-1 thunderbird</define-tag>
<define-tag report_date>2017-12-27</define-tag>
<define-tag secrefs>CVE-2017-7829 CVE-2017-7846 CVE-2017-7847 CVE-2017-7848</define-tag>
<define-tag packages>thunderbird</define-tag>
<define-tag isvulnerable>yes</define-tag>
<define-tag fixed>yes</define-tag>
<define-tag fixed-section>no</define-tag>

#use wml::debian::security

