<define-tag pagetitle>DLA-1187-1 openjdk-7</define-tag>
<define-tag report_date>2017-11-23</define-tag>
<define-tag secrefs>CVE-2017-10274 CVE-2017-10281 CVE-2017-10285 CVE-2017-10295 CVE-2017-10345 CVE-2017-10346 CVE-2017-10347 CVE-2017-10348 CVE-2017-10349 CVE-2017-10350 CVE-2017-10355 CVE-2017-10356 CVE-2017-10357 CVE-2017-10388</define-tag>
<define-tag packages>openjdk-7</define-tag>
<define-tag isvulnerable>yes</define-tag>
<define-tag fixed>yes</define-tag>
<define-tag fixed-section>no</define-tag>

#use wml::debian::security

