<define-tag pagetitle>DLA-1120-1 git</define-tag>
<define-tag report_date>2017-10-2</define-tag>
<define-tag secrefs>CVE-2017-14867 Bug#876854</define-tag>
<define-tag packages>git</define-tag>
<define-tag isvulnerable>yes</define-tag>
<define-tag fixed>yes</define-tag>
<define-tag fixed-section>no</define-tag>

#use wml::debian::security

