<define-tag pagetitle>DLA-824-1 libevent</define-tag>
<define-tag report_date>2017-2-15</define-tag>
<define-tag secrefs>CVE-2016-10195 CVE-2016-10196 CVE-2016-10197 Bug#854092</define-tag>
<define-tag packages>libevent</define-tag>
<define-tag isvulnerable>yes</define-tag>
<define-tag fixed>yes</define-tag>
<define-tag fixed-section>no</define-tag>

#use wml::debian::security

