<define-tag pagetitle>DLA-3459-1 libxpm</define-tag>
<define-tag report_date>2023-06-20</define-tag>
<define-tag secrefs>CVE-2022-4883 CVE-2022-44617 CVE-2022-46285</define-tag>
<define-tag packages>libxpm</define-tag>
<define-tag isvulnerable>yes</define-tag>
<define-tag fixed>yes</define-tag>
<define-tag fixed-section>no</define-tag>

#use wml::debian::security

