<define-tag pagetitle>DLA-3458-1 php7.3</define-tag>
<define-tag report_date>2023-06-20</define-tag>
<define-tag secrefs>CVE-2023-3247</define-tag>
<define-tag packages>php7.3</define-tag>
<define-tag isvulnerable>yes</define-tag>
<define-tag fixed>yes</define-tag>
<define-tag fixed-section>no</define-tag>

#use wml::debian::security

