<define-tag pagetitle>DLA-3444-1 mariadb-10.3</define-tag>
<define-tag report_date>2023-06-03</define-tag>
<define-tag secrefs>CVE-2022-47015 Bug#1031773</define-tag>
<define-tag packages>mariadb-10.3</define-tag>
<define-tag isvulnerable>yes</define-tag>
<define-tag fixed>yes</define-tag>
<define-tag fixed-section>no</define-tag>

#use wml::debian::security

