<define-tag pagetitle>DLA-3404-1 linux-5.10</define-tag>
<define-tag report_date>2023-05-15</define-tag>
<define-tag secrefs>CVE-2022-2196 CVE-2022-3424 CVE-2022-3707 CVE-2022-4129 CVE-2022-4379 CVE-2023-0045 CVE-2023-0458 CVE-2023-0459 CVE-2023-0461 CVE-2023-1073 CVE-2023-1074 CVE-2023-1076 CVE-2023-1077 CVE-2023-1078 CVE-2023-1079 CVE-2023-1118 CVE-2023-1281 CVE-2023-1513 CVE-2023-1611 CVE-2023-1670 CVE-2023-1829 CVE-2023-1855 CVE-2023-1859 CVE-2023-1872 CVE-2023-1989 CVE-2023-1990 CVE-2023-1998 CVE-2023-2162 CVE-2023-2194 CVE-2023-22998 CVE-2023-23004 CVE-2023-23559 CVE-2023-25012 CVE-2023-26545 CVE-2023-28328 CVE-2023-28466 CVE-2023-30456 Bug#989705 Bug#993612 Bug#1022126 Bug#1031753</define-tag>
<define-tag packages>linux-5.10</define-tag>
<define-tag isvulnerable>yes</define-tag>
<define-tag fixed>yes</define-tag>
<define-tag fixed-section>no</define-tag>

#use wml::debian::security

