<define-tag pagetitle>DLA-3354-1 kopanocore</define-tag>
<define-tag report_date>2023-03-06</define-tag>
<define-tag secrefs>CVE-2019-19907 CVE-2022-26562 Bug#1016973</define-tag>
<define-tag packages>kopanocore</define-tag>
<define-tag isvulnerable>yes</define-tag>
<define-tag fixed>yes</define-tag>
<define-tag fixed-section>no</define-tag>

#use wml::debian::security

