<define-tag pagetitle>DLA-3428-1 node-nth-check</define-tag>
<define-tag report_date>2023-05-20</define-tag>
<define-tag secrefs>CVE-2021-3803</define-tag>
<define-tag packages>node-nth-check</define-tag>
<define-tag isvulnerable>yes</define-tag>
<define-tag fixed>yes</define-tag>
<define-tag fixed-section>no</define-tag>

#use wml::debian::security

