<define-tag pagetitle>DLA-3431-1 sqlite</define-tag>
<define-tag report_date>2023-05-22</define-tag>
<define-tag secrefs>CVE-2016-6153 CVE-2018-8740</define-tag>
<define-tag packages>sqlite</define-tag>
<define-tag isvulnerable>yes</define-tag>
<define-tag fixed>yes</define-tag>
<define-tag fixed-section>no</define-tag>

#use wml::debian::security

