<define-tag pagetitle>DLA-3347-2 spip</define-tag>
<define-tag report_date>2023-03-04</define-tag>
<define-tag packages>spip</define-tag>
<define-tag isvulnerable>yes</define-tag>
<define-tag fixed>yes</define-tag>
<define-tag fixed-section>no</define-tag>

#use wml::debian::security

