<define-tag pagetitle>DLA-3357-2 imagemagick</define-tag>
<define-tag report_date>2023-03-18</define-tag>
<define-tag secrefs>Bug##1032998</define-tag>
<define-tag packages>imagemagick</define-tag>
<define-tag isvulnerable>yes</define-tag>
<define-tag fixed>yes</define-tag>
<define-tag fixed-section>no</define-tag>

#use wml::debian::security

