<define-tag pagetitle>DLA-3424-1 python-ipaddress</define-tag>
<define-tag report_date>2023-05-16</define-tag>
<define-tag secrefs>CVE-2020-14422</define-tag>
<define-tag packages>python-ipaddress</define-tag>
<define-tag isvulnerable>yes</define-tag>
<define-tag fixed>yes</define-tag>
<define-tag fixed-section>no</define-tag>

#use wml::debian::security

