<define-tag pagetitle>DLA-2507-1 libxstream-java</define-tag>
<define-tag report_date>2020-12-31</define-tag>
<define-tag secrefs>CVE-2020-26258 CVE-2020-26259 Bug#977625 Bug#977624</define-tag>
<define-tag packages>libxstream-java</define-tag>
<define-tag isvulnerable>yes</define-tag>
<define-tag fixed>yes</define-tag>
<define-tag fixed-section>no</define-tag>

#use wml::debian::security

