<define-tag pagetitle>DLA-2379-2 mediawiki</define-tag>
<define-tag report_date>2020-09-28</define-tag>
<define-tag secrefs>Bug#971264</define-tag>
<define-tag packages>mediawiki</define-tag>
<define-tag isvulnerable>yes</define-tag>
<define-tag fixed>yes</define-tag>
<define-tag fixed-section>no</define-tag>

#use wml::debian::security

