<define-tag pagetitle>DLA-2273-1 shiro</define-tag>
<define-tag report_date>2020-07-08</define-tag>
<define-tag secrefs>CVE-2020-1957 CVE-2020-11989</define-tag>
<define-tag packages>shiro</define-tag>
<define-tag isvulnerable>yes</define-tag>
<define-tag fixed>yes</define-tag>
<define-tag fixed-section>no</define-tag>

#use wml::debian::security
