<define-tag pagetitle>DLA-2082-1 unzip</define-tag>
<define-tag report_date>2020-1-28</define-tag>
<define-tag secrefs>CVE-2018-1000035</define-tag>
<define-tag packages>unzip</define-tag>
<define-tag isvulnerable>yes</define-tag>
<define-tag fixed>yes</define-tag>
<define-tag fixed-section>no</define-tag>

#use wml::debian::security

