<define-tag pagetitle>DLA-2234-1 netqmail</define-tag>
<define-tag report_date>2020-06-05</define-tag>
<define-tag secrefs>CVE-2005-1513 CVE-2005-1514 CVE-2005-1515 CVE-2020-3811 CVE-2020-3812 Bug#961060</define-tag>
<define-tag packages>netqmail</define-tag>
<define-tag isvulnerable>yes</define-tag>
<define-tag fixed>yes</define-tag>
<define-tag fixed-section>no</define-tag>

#use wml::debian::security

