<define-tag pagetitle>DLA-1418-1 bouncycastle</define-tag>
<define-tag report_date>2018-7-7</define-tag>
<define-tag secrefs>CVE-2016-1000338 CVE-2016-1000339 CVE-2016-1000341 CVE-2016-1000342 CVE-2016-1000343 CVE-2016-1000345 CVE-2016-1000346</define-tag>
<define-tag packages>bouncycastle</define-tag>
<define-tag isvulnerable>yes</define-tag>
<define-tag fixed>yes</define-tag>
<define-tag fixed-section>no</define-tag>

#use wml::debian::security

