<define-tag pagetitle>DLA-1340-1 sam2p</define-tag>
<define-tag report_date>2018-4-6</define-tag>
<define-tag secrefs>CVE-2018-7487 CVE-2018-7551 CVE-2018-7552 CVE-2018-7553 CVE-2018-7554</define-tag>
<define-tag packages>sam2p</define-tag>
<define-tag isvulnerable>yes</define-tag>
<define-tag fixed>yes</define-tag>
<define-tag fixed-section>no</define-tag>

#use wml::debian::security

