<define-tag pagetitle>DLA-1506-1 intel-microcode</define-tag>
<define-tag report_date>2018-9-16</define-tag>
<define-tag secrefs>CVE-2018-3615 CVE-2018-3620 CVE-2018-3646</define-tag>
<define-tag packages>intel-microcode</define-tag>
<define-tag isvulnerable>yes</define-tag>
<define-tag fixed>yes</define-tag>
<define-tag fixed-section>no</define-tag>

#use wml::debian::security

