<define-tag pagetitle>DLA-1576-1 ansible</define-tag>
<define-tag report_date>2018-11-12</define-tag>
<define-tag secrefs>CVE-2018-16837 Bug##912297</define-tag>
<define-tag packages>ansible</define-tag>
<define-tag isvulnerable>yes</define-tag>
<define-tag fixed>yes</define-tag>
<define-tag fixed-section>no</define-tag>

#use wml::debian::security

