<define-tag pagetitle>DSA-4390-1 flatpak</define-tag>
<define-tag report_date>2019-2-12</define-tag>
<define-tag secrefs>not yet available Bug#922059</define-tag>
<define-tag packages>flatpak</define-tag>
<define-tag isvulnerable>yes</define-tag>
<define-tag fixed>yes</define-tag>
<define-tag fixed-section>no</define-tag>

#use wml::debian::security



</dl>
