<define-tag pagetitle>DSA-4369-1 xen</define-tag>
<define-tag report_date>2019-1-14</define-tag>
<define-tag secrefs>CVE-2018-19961 CVE-2018-19962 CVE-2018-19965 CVE-2018-19966 CVE-2018-19967</define-tag>
<define-tag packages>xen</define-tag>
<define-tag isvulnerable>yes</define-tag>
<define-tag fixed>yes</define-tag>
<define-tag fixed-section>no</define-tag>

#use wml::debian::security



</dl>
