<define-tag pagetitle>DSA-4450-1 wpa</define-tag>
<define-tag report_date>2019-5-24</define-tag>
<define-tag secrefs>CVE-2019-11555 Bug#927463</define-tag>
<define-tag packages>wpa</define-tag>
<define-tag isvulnerable>yes</define-tag>
<define-tag fixed>yes</define-tag>
<define-tag fixed-section>no</define-tag>

#use wml::debian::security



</dl>
