<define-tag pagetitle>DSA-5040-1 lighttpd</define-tag>
<define-tag report_date>2022-1-11</define-tag>
<define-tag secrefs>CVE-2022-22707</define-tag>
<define-tag packages>lighttpd</define-tag>
<define-tag isvulnerable>yes</define-tag>
<define-tag fixed>yes</define-tag>
<define-tag fixed-section>no</define-tag>

#use wml::debian::security



</dl>
