<define-tag pagetitle>DSA-5183-1 wpewebkit</define-tag>
<define-tag report_date>2022-7-15</define-tag>
<define-tag secrefs>CVE-2022-22677 CVE-2022-26710</define-tag>
<define-tag packages>wpewebkit</define-tag>
<define-tag isvulnerable>yes</define-tag>
<define-tag fixed>yes</define-tag>
<define-tag fixed-section>no</define-tag>

#use wml::debian::security



</dl>
