<define-tag pagetitle>DSA-5054-1 chromium</define-tag>
<define-tag report_date>2022-1-23</define-tag>
<define-tag secrefs>CVE-2022-0289 CVE-2022-0290 CVE-2022-0291 CVE-2022-0292 CVE-2022-0293 CVE-2022-0294 CVE-2022-0295 CVE-2022-0296 CVE-2022-0297 CVE-2022-0298 CVE-2022-0300 CVE-2022-0301 CVE-2022-0302 CVE-2022-0303 CVE-2022-0304 CVE-2022-0305 CVE-2022-0306 CVE-2022-0307 CVE-2022-0308 CVE-2022-0309 CVE-2022-0310 CVE-2022-0311</define-tag>
<define-tag packages>chromium</define-tag>
<define-tag isvulnerable>yes</define-tag>
<define-tag fixed>yes</define-tag>
<define-tag fixed-section>no</define-tag>

#use wml::debian::security



</dl>
