<define-tag pagetitle>DSA-5227-1 libgoogle-gson-java</define-tag>
<define-tag report_date>2022-9-07</define-tag>
<define-tag secrefs>CVE-2022-25647 Bug#1010670</define-tag>
<define-tag packages>libgoogle-gson-java</define-tag>
<define-tag isvulnerable>yes</define-tag>
<define-tag fixed>yes</define-tag>
<define-tag fixed-section>no</define-tag>

#use wml::debian::security



</dl>
