<define-tag pagetitle>DSA-5159-1 python-bottle</define-tag>
<define-tag report_date>2022-6-09</define-tag>
<define-tag secrefs>CVE-2022-31799</define-tag>
<define-tag packages>python-bottle</define-tag>
<define-tag isvulnerable>yes</define-tag>
<define-tag fixed>yes</define-tag>
<define-tag fixed-section>no</define-tag>

#use wml::debian::security



</dl>
