<define-tag pagetitle>DLA-1845-1 dosbox</define-tag>
<define-tag report_date>2019-7-7</define-tag>
<define-tag secrefs>CVE-2019-7165 CVE-2019-12594 Bug#931222</define-tag>
<define-tag packages>dosbox</define-tag>
<define-tag isvulnerable>yes</define-tag>
<define-tag fixed>yes</define-tag>
<define-tag fixed-section>no</define-tag>

#use wml::debian::security

