<define-tag pagetitle>DLA-1816-1 otrs2</define-tag>
<define-tag report_date>2019-6-11</define-tag>
<define-tag secrefs>CVE-2019-12248 CVE-2019-12497</define-tag>
<define-tag packages>otrs2</define-tag>
<define-tag isvulnerable>yes</define-tag>
<define-tag fixed>yes</define-tag>
<define-tag fixed-section>no</define-tag>

#use wml::debian::security

