<define-tag pagetitle>DLA-2044-1 cyrus-sasl2</define-tag>
<define-tag report_date>2019-12-20</define-tag>
<define-tag secrefs>CVE-2019-19906</define-tag>
<define-tag packages>cyrus-sasl2</define-tag>
<define-tag isvulnerable>yes</define-tag>
<define-tag fixed>yes</define-tag>
<define-tag fixed-section>no</define-tag>

#use wml::debian::security

