<define-tag pagetitle>DLA-1887-1 freetype</define-tag>
<define-tag report_date>2019-8-15</define-tag>
<define-tag secrefs>CVE-2015-9290</define-tag>
<define-tag packages>freetype</define-tag>
<define-tag isvulnerable>yes</define-tag>
<define-tag fixed>yes</define-tag>
<define-tag fixed-section>no</define-tag>

#use wml::debian::security

