<define-tag pagetitle>DLA-1726-1 bash</define-tag>
<define-tag report_date>2019-3-25</define-tag>
<define-tag secrefs>CVE-2016-9401 CVE-2019-9924</define-tag>
<define-tag packages>bash</define-tag>
<define-tag isvulnerable>yes</define-tag>
<define-tag fixed>yes</define-tag>
<define-tag fixed-section>no</define-tag>

#use wml::debian::security

