<define-tag pagetitle>DLA-1733-1 wpa</define-tag>
<define-tag report_date>2019-3-28</define-tag>
<define-tag secrefs>CVE-2016-10743</define-tag>
<define-tag packages>wpa</define-tag>
<define-tag isvulnerable>yes</define-tag>
<define-tag fixed>yes</define-tag>
<define-tag fixed-section>no</define-tag>

#use wml::debian::security

