<define-tag pagetitle>DLA-708-1 mysql-5.5</define-tag>
<define-tag report_date>2016-11-16</define-tag>
<define-tag secrefs>CVE-2016-5584 CVE-2016-7440 Bug#841050</define-tag>
<define-tag packages>mysql-5.5</define-tag>
<define-tag isvulnerable>yes</define-tag>
<define-tag fixed>yes</define-tag>
<define-tag fixed-section>no</define-tag>

#use wml::debian::security

