<define-tag pagetitle>DLA-581-1 libreoffice</define-tag>
<define-tag report_date>2016-8-3</define-tag>
<define-tag secrefs>CVE-2016-4324</define-tag>
<define-tag packages>libreoffice</define-tag>
<define-tag isvulnerable>yes</define-tag>
<define-tag fixed>yes</define-tag>
<define-tag fixed-section>no</define-tag>

#use wml::debian::security

