<define-tag pagetitle>DLA-562-1 gosa</define-tag>
<define-tag report_date>2016-7-26</define-tag>
<define-tag secrefs>CVE-2015-8771</define-tag>
<define-tag packages>gosa</define-tag>
<define-tag isvulnerable>yes</define-tag>
<define-tag fixed>yes</define-tag>
<define-tag fixed-section>no</define-tag>

#use wml::debian::security

